{"count":339,"next":"https://ll.thespacedevs.com/2.0.0/launch/upcoming/?limit=10&offset=10","previous":null,"results":[{"id":"ccbd07da-d3c7-4b22-a5ee-cb190f6e06b0","url":"https://ll.thespacedevs.com/2.0.0/launch/ccbd07da-d3c7-4b22-a5ee-cb190f6e06b0/","launch_library_id":2001,"slug":"vega-c-biomass","name":"Vega-C | Biomass","status":{"id":3,"name":"Success"},"net":"2025-04-29T09:15:52Z","window_end":"2025-04-29T09:15:52Z","window_start":"2025-04-29T09:15:52Z","inhold":false,"tbdtime":false,"tbddate":false,"probability":null,"holdreason":"","failreason":"","hashtag":null,"launch_service_provider":{"id":115,"url":"https://ll.thespacedevs.com/2.0.0/agencies/115/","name":"Arianespace","type":"Commercial"},"rocket":{"id":2571,"configuration":{"id":127,"launch_library_id":163,"url":"https://ll.thespacedevs.com/2.0.0/config/launcher/127/","name":"Vega-C","family":"Vega","full_name":"Vega-C","variant":""}},"mission":{"id":1054,"launch_library_id":1252,"name":"Biomass","description":"Biomass is an European Space Agency mission designed to measure the density of carbon stored in the world's forests. The spacecraft, built by Airbus Defence and Space, features the first civilian P-band synthetic aperture radar as well as a 12m-diameter deployable reflector from L3Harris made of over 900 km of gold-coated molybdenum 25µm wire.\r\nWith a minimum operational lifetime of 5 years in its 666km 6am/6pm sun-synchronous orbit, the global coverage achieved every 9 months allows to precisely monitor the evolution of forests over time.","launch_designator":null,"type":"Earth Science","orbit":{"id":17,"name":"Sun-Synchronous Orbit","abbrev":"SSO"}},"pad":{"id":34,"url":"https://ll.thespacedevs.com/2.0.0/pad/34/","agency_id":115,"name":"Ariane Launch Area 1 (ELV)","info_url":null,"wiki_url":"https://en.wikipedia.org/wiki/ELA-1","map_url":"https://www.google.com/maps?q=5.236,-52.775","latitude":"5.236","longitude":"-52.775","location":{"id":13,"url":"https://ll.thespacedevs.com/2.0.0/location/13/","name":"Guiana Space Centre, French Guiana","country_code":"GUF","map_image":"https://thespacedevs-prod.nyc3.digitaloceanspaces.com/media/map_images/location_13_20200803142412.jpg","total_launch_count":325,"total_landing_count":0},"map_image":"https://thespacedevs-prod.nyc3.digitaloceanspaces.com/media/map_images/pad_34_20200803143527.jpg","total_launch_count":52},"webcast_live":false,"image":"https://thespacedevs-prod.nyc3.digitaloceanspaces.com/media/images/vega-c_image_20220713154437.jpg","infographic":"https://thespacedevs-prod.nyc3.digitaloceanspaces.com/media/infographic_images/vega-c2520257_infographic_20250211185656.png","program":[]},{"id":"d6dd6900-332e-4e9e-89b8-dfa4ba285822","url":"https://ll.thespacedevs.com/2.0.0/launch/d6dd6900-332e-4e9e-89b8-dfa4ba285822/","launch_library_id":null,"slug":"firefly-alpha-flta006-message-in-a-booster","name":"Firefly Alpha | FLTA006 (Message in a Booster)","status":{"id":4,"name":"Failure"},"net":"2025-04-29T13:37:00Z","window_end":"2025-04-29T14:29:00Z","window_start":"2025-04-29T13:37:00Z","inhold":false,"tbdtime":false,"tbddate":false,"probability":90,"holdreason":"","failreason":"Problem during stage separation and second stage ignition caused disintegration of the separated 1st stage and the loss of the Lightning engine nozzle extension on the 2nd stage, substantially reducing the engine’s thrust. 2nd stage reached 320 km in altitude but did not reach orbital velocity, eventually impacted the Pacific Ocean north of Antarctica.","hashtag":null,"launch_service_provider":{"id":265,"url":"https://ll.thespacedevs.com/2.0.0/agencies/265/","name":"Firefly Aerospace","type":"Commercial"},"rocket":{"id":8418,"configuration":{"id":179,"launch_library_id":216,"url":"https://ll.thespacedevs.com/2.0.0/config/launcher/179/","name":"Firefly Alpha","family":"","full_name":"Firefly Alpha","variant":""}},"mission":{"id":7007,"launch_library_id":null,"name":"FLTA006 (Message in a Booster)","description":"Sixth flight of the Firefly Alpha small satellite launcher, launching the demonstration mission for Lockheed Martin's new LM400 satellite bus, which will carry a communications payload. The satellite bus is customizable to support different missions, including remote sensing, communications, imagery and radar Earth observations. It can also support different kinds of orbits and launch configurations.","launch_designator":null,"type":"Technology","orbit":{"id":8,"name":"Low Earth Orbit","abbrev":"LEO"}},"pad":{"id":39,"url":"https://ll.thespacedevs.com/2.0.0/pad/39/","agency_id":null,"name":"Space Launch Complex 2W","info_url":null,"wiki_url":"https://en.wikipedia.org/wiki/Vandenberg_Space_Launch_Complex_2","map_url":"https://www.google.com/maps?q=34.7556,-120.6224","latitude":"34.7556","longitude":"-120.6224","location":{"id":11,"url":"https://ll.thespacedevs.com/2.0.0/location/11/","name":"Vandenberg SFB, CA, USA","country_code":"USA","map_image":"https://thespacedevs-prod.nyc3.digitaloceanspaces.com/media/map_images/location_11_20200803142416.jpg","total_launch_count":804,"total_landing_count":26},"map_image":"https://thespacedevs-prod.nyc3.digitaloceanspaces.com/media/map_images/pad_39_20200803143542.jpg","total_launch_count":98},"webcast_live":false,"image":"https://thespacedevs-prod.nyc3.digitaloceanspaces.com/media/images/firefly_alpha_l_image_20240605174156.jpeg","infographic":null,"program":[]},{"id":"1a105ccb-e59f-48e8-b853-c424bd8cc699","url":"https://ll.thespacedevs.com/2.0.0/launch/1a105ccb-e59f-48e8-b853-c424bd8cc699/","launch_library_id":null,"slug":"falcon-9-block-5-starlink-group-6-75","name":"Falcon 9 Block 5 | Starlink Group 6-75","status":{"id":2,"name":"TBD"},"net":"2025-05-02T01:51:00Z","window_end":"2025-05-02T05:51:00Z","window_start":"2025-05-02T01:51:00Z","inhold":false,"tbdtime":true,"tbddate":false,"probability":99,"holdreason":"","failreason":"","hashtag":null,"launch_service_provider":{"id":121,"url":"https://ll.thespacedevs.com/2.0.0/agencies/121/","name":"SpaceX","type":"Commercial"},"rocket":{"id":8596,"configuration":{"id":164,"launch_library_id":188,"url":"https://ll.thespacedevs.com/2.0.0/config/launcher/164/","name":"Falcon 9","family":"Falcon","full_name":"Falcon 9 Block 5","variant":"Block 5"}},"mission":{"id":7188,"launch_library_id":null,"name":"Starlink Group 6-75","description":"A batch of 28 satellites for the Starlink mega-constellation - SpaceX's project for space-based Internet communication system.","launch_designator":null,"type":"Communications","orbit":{"id":8,"name":"Low Earth Orbit","abbrev":"LEO"}},"pad":{"id":80,"url":"https://ll.thespacedevs.com/2.0.0/pad/80/","agency_id":121,"name":"Space Launch Complex 40","info_url":null,"wiki_url":"https://en.wikipedia.org/wiki/Cape_Canaveral_Air_Force_Station_Space_Launch_Complex_40","map_url":"https://www.google.com/maps?q=28.56194122,-80.57735736","latitude":"28.56194122","longitude":"-80.57735736","location":{"id":12,"url":"https://ll.thespacedevs.com/2.0.0/location/12/","name":"Cape Canaveral SFS, FL, USA","country_code":"USA","map_image":"https://thespacedevs-prod.nyc3.digitaloceanspaces.com/media/map_images/location_12_20200803142519.jpg","total_launch_count":1019,"total_landing_count":64},"map_image":"https://thespacedevs-prod.nyc3.digitaloceanspaces.com/media/map_images/pad_80_20200803143323.jpg","total_launch_count":303},"webcast_live":false,"image":"https://thespacedevs-prod.nyc3.digitaloceanspaces.com/media/images/falcon2520925_image_20221009234147.png","infographic":null,"program":[{"id":25,"url":"https://ll.thespacedevs.com/2.0.0/program/25/","name":"Starlink","description":"Starlink is a satellite internet constellation operated by American aerospace company SpaceX","agencies":[{"id":121,"url":"https://ll.thespacedevs.com/2.0.0/agencies/121/","name":"SpaceX","type":"Commercial"}],"image_url":"https://thespacedevs-prod.nyc3.digitaloceanspaces.com/media/images/starlink_program_20231228154508.jpeg","start_date":"2018-02-22T14:17:00Z","end_date":null,"info_url":"https://starlink.com","wiki_url":"https://en.wikipedia.org/wiki/Starlink"}]},{"id":"7b685ef7-f610-413f-bd4a-cc58aed97be2","url":"https://ll.thespacedevs.com/2.0.0/launch/7b685ef7-f610-413f-bd4a-cc58aed97be2/","launch_library_id":null,"slug":"falcon-9-block-5-starlink-group-15-3","name":"Falcon 9 Block 5 | Starlink Group 15-3","status":{"id":2,"name":"TBD"},"net":"2025-05-02T18:27:00Z","window_end":"2025-05-02T22:55:00Z","window_start":"2025-05-02T18:27:00Z","inhold":false,"tbdtime":true,"tbddate":false,"probability":null,"holdreason":"","failreason":"","hashtag":null,"launch_service_provider":{"id":121,"url":"https://ll.thespacedevs.com/2.0.0/agencies/121/","name":"SpaceX","type":"Commercial"},"rocket":{"id":8594,"configuration":{"id":164,"launch_library_id":188,"url":"https://ll.thespacedevs.com/2.0.0/config/launcher/164/","name":"Falcon 9","family":"Falcon","full_name":"Falcon 9 Block 5","variant":"Block 5"}},"mission":{"id":7186,"launch_library_id":null,"name":"Starlink Group 15-3","description":"A batch of satellites for the Starlink mega-constellation - SpaceX's project for space-based Internet communication system.","launch_designator":null,"type":"Communications","orbit":{"id":8,"name":"Low Earth Orbit","abbrev":"LEO"}},"pad":{"id":16,"url":"https://ll.thespacedevs.com/2.0.0/pad/16/","agency_id":null,"name":"Space Launch Complex 4E","info_url":null,"wiki_url":"https://en.wikipedia.org/wiki/Vandenberg_Space_Launch_Complex_4#SLC-4E","map_url":"https://www.google.com/maps?q=34.632,-120.611","latitude":"34.632","longitude":"-120.611","location":{"id":11,"url":"https://ll.thespacedevs.com/2.0.0/location/11/","name":"Vandenberg SFB, CA, USA","country_code":"USA","map_image":"https://thespacedevs-prod.nyc3.digitaloceanspaces.com/media/map_images/location_11_20200803142416.jpg","total_launch_count":804,"total_landing_count":26},"map_image":"https://thespacedevs-prod.nyc3.digitaloceanspaces.com/media/map_images/pad_16_20200803143532.jpg","total_launch_count":190},"webcast_live":false,"image":"https://thespacedevs-prod.nyc3.digitaloceanspaces.com/media/images/falcon2520925_image_20221009234147.png","infographic":null,"program":[{"id":25,"url":"https://ll.thespacedevs.com/2.0.0/program/25/","name":"Starlink","description":"Starlink is a satellite internet constellation operated by American aerospace company SpaceX","agencies":[{"id":121,"url":"https://ll.thespacedevs.com/2.0.0/agencies/121/","name":"SpaceX","type":"Commercial"}],"image_url":"https://thespacedevs-prod.nyc3.digitaloceanspaces.com/media/images/starlink_program_20231228154508.jpeg","start_date":"2018-02-22T14:17:00Z","end_date":null,"info_url":"https://starlink.com","wiki_url":"https://en.wikipedia.org/wiki/Starlink"}]},{"id":"8ffb4866-43c9-46c1-aaac-05bd37891b0a","url":"https://ll.thespacedevs.com/2.0.0/launch/8ffb4866-43c9-46c1-aaac-05bd37891b0a/","launch_library_id":null,"slug":"falcon-9-block-5-starlink-group-6-84","name":"Falcon 9 Block 5 | Starlink Group 6-84","status":{"id":2,"name":"TBD"},"net":"2025-05-04T08:48:00Z","window_end":"2025-05-04T12:48:00Z","window_start":"2025-05-04T08:48:00Z","inhold":false,"tbdtime":true,"tbddate":false,"probability":null,"holdreason":"","failreason":"","hashtag":null,"launch_service_provider":{"id":121,"url":"https://ll.thespacedevs.com/2.0.0/agencies/121/","name":"SpaceX","type":"Commercial"},"rocket":{"id":8598,"configuration":{"id":164,"launch_library_id":188,"url":"https://ll.thespacedevs.com/2.0.0/config/launcher/164/","name":"Falcon 9","family":"Falcon","full_name":"Falcon 9 Block 5","variant":"Block 5"}},"mission":{"id":7190,"launch_library_id":null,"name":"Starlink Group 6-84","description":"A batch of satellites for the Starlink mega-constellation - SpaceX's project for space-based Internet communication system.","launch_designator":null,"type":"Communications","orbit":{"id":8,"name":"Low Earth Orbit","abbrev":"LEO"}},"pad":{"id":87,"url":"https://ll.thespacedevs.com/2.0.0/pad/87/","agency_id":121,"name":"Launch Complex 39A","info_url":null,"wiki_url":"https://en.wikipedia.org/wiki/Kennedy_Space_Center_Launch_Complex_39#Launch_Pad_39A","map_url":"https://www.google.com/maps?q=28.60822681,-80.60428186","latitude":"28.60822681","longitude":"-80.60428186","location":{"id":27,"url":"https://ll.thespacedevs.com/2.0.0/location/27/","name":"Kennedy Space Center, FL, USA","country_code":"USA","map_image":"https://thespacedevs-prod.nyc3.digitaloceanspaces.com/media/map_images/location_27_20200803142447.jpg","total_launch_count":263,"total_landing_count":0},"map_image":"https://thespacedevs-prod.nyc3.digitaloceanspaces.com/media/map_images/pad_87_20200803143537.jpg","total_launch_count":205},"webcast_live":false,"image":"https://thespacedevs-prod.nyc3.digitaloceanspaces.com/media/images/falcon2520925_image_20221009234147.png","infographic":null,"program":[{"id":25,"url":"https://ll.thespacedevs.com/2.0.0/program/25/","name":"Starlink","description":"Starlink is a satellite internet constellation operated by American aerospace company SpaceX","agencies":[{"id":121,"url":"https://ll.thespacedevs.com/2.0.0/agencies/121/","name":"SpaceX","type":"Commercial"}],"image_url":"https://thespacedevs-prod.nyc3.digitaloceanspaces.com/media/images/starlink_program_20231228154508.jpeg","start_date":"2018-02-22T14:17:00Z","end_date":null,"info_url":"https://starlink.com","wiki_url":"https://en.wikipedia.org/wiki/Starlink"}]},{"id":"d5e8b971-0138-42d7-a6ba-7d43bf529d5e","url":"https://ll.thespacedevs.com/2.0.0/launch/d5e8b971-0138-42d7-a6ba-7d43bf529d5e/","launch_library_id":null,"slug":"falcon-9-block-5-starlink-group-6-93","name":"Falcon 9 Block 5 | Starlink Group 6-93","status":{"id":2,"name":"TBD"},"net":"2025-05-05T01:14:00Z","window_end":"2025-05-05T05:14:00Z","window_start":"2025-05-05T01:14:00Z","inhold":false,"tbdtime":true,"tbddate":false,"probability":null,"holdreason":"","failreason":"","hashtag":null,"launch_service_provider":{"id":121,"url":"https://ll.thespacedevs.com/2.0.0/agencies/121/","name":"SpaceX","type":"Commercial"},"rocket":{"id":8599,"configuration":{"id":164,"launch_library_id":188,"url":"https://ll.thespacedevs.com/2.0.0/config/launcher/164/","name":"Falcon 9","family":"Falcon","full_name":"Falcon 9 Block 5","variant":"Block 5"}},"mission":{"id":7191,"launch_library_id":null,"name":"Starlink Group 6-93","description":"A batch of satellites for the Starlink mega-constellation - SpaceX's project for space-based Internet communication system.","launch_designator":null,"type":"Communications","orbit":{"id":8,"name":"Low Earth Orbit","abbrev":"LEO"}},"pad":{"id":80,"url":"https://ll.thespacedevs.com/2.0.0/pad/80/","agency_id":121,"name":"Space Launch Complex 40","info_url":null,"wiki_url":"https://en.wikipedia.org/wiki/Cape_Canaveral_Air_Force_Station_Space_Launch_Complex_40","map_url":"https://www.google.com/maps?q=28.56194122,-80.57735736","latitude":"28.56194122","longitude":"-80.57735736","location":{"id":12,"url":"https://ll.thespacedevs.com/2.0.0/location/12/","name":"Cape Canaveral SFS, FL, USA","country_code":"USA","map_image":"https://thespacedevs-prod.nyc3.digitaloceanspaces.com/media/map_images/location_12_20200803142519.jpg","total_launch_count":1019,"total_landing_count":64},"map_image":"https://thespacedevs-prod.nyc3.digitaloceanspaces.com/media/map_images/pad_80_20200803143323.jpg","total_launch_count":303},"webcast_live":false,"image":"https://thespacedevs-prod.nyc3.digitaloceanspaces.com/media/images/falcon2520925_image_20221009234147.png","infographic":null,"program":[{"id":25,"url":"https://ll.thespacedevs.com/2.0.0/program/25/","name":"Starlink","description":"Starlink is a satellite internet constellation operated by American aerospace company SpaceX","agencies":[{"id":121,"url":"https://ll.thespacedevs.com/2.0.0/agencies/121/","name":"SpaceX","type":"Commercial"}],"image_url":"https://thespacedevs-prod.nyc3.digitaloceanspaces.com/media/images/starlink_program_20231228154508.jpeg","start_date":"2018-02-22T14:17:00Z","end_date":null,"info_url":"https://starlink.com","wiki_url":"https://en.wikipedia.org/wiki/Starlink"}]},{"id":"82aef7fd-9664-4e94-970c-5e99eff1b331","url":"https://ll.thespacedevs.com/2.0.0/launch/82aef7fd-9664-4e94-970c-5e99eff1b331/","launch_library_id":null,"slug":"long-march-12-satnet-leo-group-tbd","name":"Long March 12 | SatNet LEO Group TBD?","status":{"id":1,"name":"Go"},"net":"2025-05-05T11:05:00Z","window_end":"2025-05-05T11:47:00Z","window_start":"2025-05-05T10:57:00Z","inhold":false,"tbdtime":true,"tbddate":false,"probability":null,"holdreason":"","failreason":"","hashtag":null,"launch_service_provider":{"id":88,"url":"https://ll.thespacedevs.com/2.0.0/agencies/88/","name":"China Aerospace Science and Technology Corporation","type":"Government"},"rocket":{"id":8600,"configuration":{"id":517,"launch_library_id":null,"url":"https://ll.thespacedevs.com/2.0.0/config/launcher/517/","name":"Long March 12","family":"Long March","full_name":"Long March 12","variant":"12"}},"mission":{"id":7192,"launch_library_id":null,"name":"SatNet LEO Group TBD?","description":"A batch of Low Earth Orbit communication satellites for the Chinese state owned SatNet constellation operated by the China Satellite Network Group.\r\n\r\nThe constellation will eventually consists of 13000 satellites.","launch_designator":null,"type":"Communications","orbit":{"id":8,"name":"Low Earth Orbit","abbrev":"LEO"}},"pad":{"id":219,"url":"https://ll.thespacedevs.com/2.0.0/pad/219/","agency_id":null,"name":"Commercial LC-2","info_url":null,"wiki_url":"https://en.wikipedia.org/wiki/Wenchang_Commercial_Space_Launch_Site","map_url":"https://www.google.com/maps?q=19.59755,110.936481","latitude":"19.59755","longitude":"110.936481","location":{"id":8,"url":"https://ll.thespacedevs.com/2.0.0/location/8/","name":"Wenchang Space Launch Site, People's Republic of China","country_code":"CHN","map_image":"https://thespacedevs-prod.nyc3.digitaloceanspaces.com/media/map_images/location_8_20200803142445.jpg","total_launch_count":38,"total_landing_count":0},"map_image":"https://thespacedevs-prod.nyc3.digitaloceanspaces.com/media/map_images/pad_commercial_lc-2_20231225074048.jpg","total_launch_count":1},"webcast_live":false,"image":"https://thespacedevs-prod.nyc3.digitaloceanspaces.com/media/images/cz-12_on_its_la_image_20241128132937.jpg","infographic":null,"program":[]},{"id":"e6d98870-9a89-4cca-bbd1-511eed4bf2ce","url":"https://ll.thespacedevs.com/2.0.0/launch/e6d98870-9a89-4cca-bbd1-511eed4bf2ce/","launch_library_id":null,"slug":"pslv-xl-eos-09-risat-1b","name":"PSLV-XL | EOS-09 (RISAT-1B)","status":{"id":2,"name":"TBD"},"net":"2025-05-19T00:00:00Z","window_end":"2025-05-19T00:00:00Z","window_start":"2025-05-19T00:00:00Z","inhold":false,"tbdtime":true,"tbddate":false,"probability":null,"holdreason":"","failreason":"","hashtag":null,"launch_service_provider":{"id":31,"url":"https://ll.thespacedevs.com/2.0.0/agencies/31/","name":"Indian Space Research Organization","type":"Government"},"rocket":{"id":8592,"configuration":{"id":38,"launch_library_id":38,"url":"https://ll.thespacedevs.com/2.0.0/config/launcher/38/","name":"PSLV-XL","family":"PSLV","full_name":"PSLV XL","variant":"XL"}},"mission":{"id":7184,"launch_library_id":null,"name":"EOS-09 (RISAT-1B)","description":"RISAT-1B is the third in the series of radar imaging RISAT-1 satellites of ISRO using an active C-band SAR (Synthetic Aperture Radar), providing all-weather as well as the day-and-night SAR observation capability in applications such as agriculture, forestry, soil moisture, geology, sea ice, coastal monitoring, object identification, and flood monitoring, in addition to military surveillance.\r\n\r\nThe RISAT-1 series is developed, manufactured and integrated by ISRO. The 3-axis stabilized spacecraft bus consists of a hexagonal prism shape build around a central cylinder. Most of the spacecraft subsystems and the payload are integrated in the prism structure and the central cylinder. The solar panels and some subsystems are mounted on the cube-shaped section of the spacecraft.","launch_designator":null,"type":"Government/Top Secret","orbit":{"id":8,"name":"Low Earth Orbit","abbrev":"LEO"}},"pad":{"id":50,"url":"https://ll.thespacedevs.com/2.0.0/pad/50/","agency_id":31,"name":"Satish Dhawan Space Centre First Launch Pad","info_url":null,"wiki_url":"https://en.wikipedia.org/wiki/Satish_Dhawan_Space_Centre_First_Launch_Pad","map_url":"https://www.google.com/maps?q=13.733,80.235","latitude":"13.733","longitude":"80.235","location":{"id":14,"url":"https://ll.thespacedevs.com/2.0.0/location/14/","name":"Satish Dhawan Space Centre, India","country_code":"IND","map_image":"https://thespacedevs-prod.nyc3.digitaloceanspaces.com/media/map_images/location_14_20200803142403.jpg","total_launch_count":98,"total_landing_count":0},"map_image":"https://thespacedevs-prod.nyc3.digitaloceanspaces.com/media/map_images/pad_50_20200803143457.jpg","total_launch_count":61},"webcast_live":false,"image":"https://thespacedevs-prod.nyc3.digitaloceanspaces.com/media/images/pslv_image_20190224012254.jpeg","infographic":null,"program":[]},{"id":"0805af04-c2ea-4750-9eb4-f24f89eeb5d6","url":"https://ll.thespacedevs.com/2.0.0/launch/0805af04-c2ea-4750-9eb4-f24f89eeb5d6/","launch_library_id":null,"slug":"falcon-9-block-5-axiom-space-mission-4","name":"Falcon 9 Block 5 | Axiom Space Mission 4","status":{"id":1,"name":"Go"},"net":"2025-05-29T17:03:00Z","window_end":"2025-05-29T17:03:00Z","window_start":"2025-05-29T17:03:00Z","inhold":false,"tbdtime":false,"tbddate":false,"probability":null,"holdreason":"","failreason":"","hashtag":null,"launch_service_provider":{"id":121,"url":"https://ll.thespacedevs.com/2.0.0/agencies/121/","name":"SpaceX","type":"Commercial"},"rocket":{"id":2952,"configuration":{"id":164,"launch_library_id":188,"url":"https://ll.thespacedevs.com/2.0.0/config/launcher/164/","name":"Falcon 9","family":"Falcon","full_name":"Falcon 9 Block 5","variant":"Block 5"}},"mission":{"id":1369,"launch_library_id":null,"name":"Axiom Space Mission 4","description":"This is a Crew Dragon flight for a private company Axiom Space. The mission will carry a professionally trained commander alongside three private astronauts to and from the International Space Station. This crew will stay aboard space station for  at least eight days.","launch_designator":null,"type":"Tourism","orbit":{"id":8,"name":"Low Earth Orbit","abbrev":"LEO"}},"pad":{"id":87,"url":"https://ll.thespacedevs.com/2.0.0/pad/87/","agency_id":121,"name":"Launch Complex 39A","info_url":null,"wiki_url":"https://en.wikipedia.org/wiki/Kennedy_Space_Center_Launch_Complex_39#Launch_Pad_39A","map_url":"https://www.google.com/maps?q=28.60822681,-80.60428186","latitude":"28.60822681","longitude":"-80.60428186","location":{"id":27,"url":"https://ll.thespacedevs.com/2.0.0/location/27/","name":"Kennedy Space Center, FL, USA","country_code":"USA","map_image":"https://thespacedevs-prod.nyc3.digitaloceanspaces.com/media/map_images/location_27_20200803142447.jpg","total_launch_count":263,"total_landing_count":0},"map_image":"https://thespacedevs-prod.nyc3.digitaloceanspaces.com/media/map_images/pad_87_20200803143537.jpg","total_launch_count":205},"webcast_live":false,"image":"https://thespacedevs-prod.nyc3.digitaloceanspaces.com/media/images/falcon2520925_image_20210525170218.jpeg","infographic":null,"program":[{"id":32,"url":"https://ll.thespacedevs.com/2.0.0/program/32/","name":"Axiom Private Spaceflight","description":"Axiom Space provides human spaceflight missions to the International Space Station. \r\nThe company sent its first commercial astronauts into orbit in 2022. It also plans human spaceflight for government-funded and commercial astronauts engaging in in-space research, in-space manufacturing, and space exploration.","agencies":[{"id":1022,"url":"https://ll.thespacedevs.com/2.0.0/agencies/1022/","name":"Axiom Space","type":"Private"}],"image_url":"https://thespacedevs-prod.nyc3.digitaloceanspaces.com/media/images/axiom2520priva_program_20231231100427.jpeg","start_date":"2022-04-08T00:00:00Z","end_date":null,"info_url":"https://www.axiomspace.com/missions/","wiki_url":"https://en.wikipedia.org/wiki/Axiom_Space#Missions"}]},{"id":"5792dbed-ea1a-4095-9c74-6d6de99b9827","url":"https://ll.thespacedevs.com/2.0.0/launch/5792dbed-ea1a-4095-9c74-6d6de99b9827/","launch_library_id":null,"slug":"eris-1-maiden-flight","name":"Eris-1 | Maiden Flight","status":{"id":2,"name":"TBD"},"net":"2025-05-31T00:00:00Z","window_end":"2025-05-31T00:00:00Z","window_start":"2025-05-31T00:00:00Z","inhold":false,"tbdtime":true,"tbddate":true,"probability":null,"holdreason":"","failreason":"","hashtag":null,"launch_service_provider":{"id":188,"url":"https://ll.thespacedevs.com/2.0.0/agencies/188/","name":"Gilmour Space Technologies","type":"Private"},"rocket":{"id":8540,"configuration":{"id":460,"launch_library_id":null,"url":"https://ll.thespacedevs.com/2.0.0/config/launcher/460/","name":"Eris-1","family":"Eris","full_name":"Eris Block 1","variant":"1"}},"mission":{"id":7131,"launch_library_id":null,"name":"Maiden Flight","description":"Maiden flight of Gilmour Space's orbital launch vehicle Eris.","launch_designator":null,"type":"Test Flight","orbit":{"id":8,"name":"Low Earth Orbit","abbrev":"LEO"}},"pad":{"id":238,"url":"https://ll.thespacedevs.com/2.0.0/pad/238/","agency_id":188,"name":"Eris Pad","info_url":null,"wiki_url":"https://en.wikipedia.org/wiki/Gilmour_Space_Technologies#Bowen_Orbital_Spaceport_(BOS)","map_url":null,"latitude":"-19.958151","longitude":"148.1129553","location":{"id":181,"url":"https://ll.thespacedevs.com/2.0.0/location/181/","name":"Bowen Orbital Spaceport","country_code":"AUS","map_image":"https://thespacedevs-prod.nyc3.digitaloceanspaces.com/media/map_images/location_bowen_orbital_spaceport_20250227073649.jpg","total_launch_count":0,"total_landing_count":0},"map_image":"https://thespacedevs-prod.nyc3.digitaloceanspaces.com/media/map_images/pad_eris_pad_20250227074117.jpg","total_launch_count":0},"webcast_live":false,"image":"https://thespacedevs-prod.nyc3.digitaloceanspaces.com/media/images/eris_on_the_lau_image_20250227073032.jpg","infographic":null,"program":[]}]}